{
  "currentProfile": "profil1",
  "profil1": {
    "apps": [
      {
      	"id": "1238947612",
        "uri": "com.yazcub.aynaweatheroneday",
        "name": "AynaWeatherOneDay",
        "row": 1,
        "column": 1
      },
      {
      	"id": "23479825459",
        "uri": "com.yazcub.aynanews",
        "name": "AynaNews",
        "row": 1,
        "column": 2
      }
    ]
  }
}
